<?xml version="1.0" encoding="UTF-8"?>

<svg version="1.2" baseProfile="tiny" width="279.4mm" height="127mm" viewBox="0 0 27940 12700" preserveAspectRatio="xMidYMid" fill-rule="evenodd" stroke-width="28.222" stroke-linejoin="round" xmlns="http://www.w3.org/2000/svg" xmlns:xlink="http://www.w3.org/1999/xlink" xml:space="preserve">
 <defs>
  <font id="EmbeddedFont_1" horiz-adv-x="2048">
   <font-face font-family="Arial embedded" units-per-em="2048" font-weight="normal" font-style="normal" ascent="1864" descent="443"/>
   <missing-glyph horiz-adv-x="2048" d="M 0,0 L 2047,0 2047,2047 0,2047 0,0 Z"/>
   <glyph unicode="w" horiz-adv-x="1446" d="M 331,0 L 6,1062 192,1062 361,449 424,221 C 427,232 445,305 479,440 L 648,1062 833,1062 992,446 1045,243 1106,448 1288,1062 1463,1062 1131,0 944,0 775,636 734,817 519,0 Z"/>
   <glyph unicode="u" horiz-adv-x="863" d="M 831,0 L 831,156 C 748,36 636,-24 494,-24 431,-24 373,-12 319,12 264,36 224,66 198,103 171,139 153,183 142,236 135,271 131,327 131,404 L 131,1062 311,1062 311,473 C 311,379 315,316 322,283 333,236 357,199 394,172 431,145 476,131 530,131 584,131 635,145 682,173 729,200 763,238 783,286 802,333 812,402 812,493 L 812,1062 992,1062 992,0 Z"/>
   <glyph unicode="t" horiz-adv-x="514" d="M 528,161 L 554,2 C 503,-9 458,-14 418,-14 353,-14 302,-4 266,17 230,38 205,65 190,99 175,132 168,203 168,311 L 168,922 36,922 36,1062 168,1062 168,1325 347,1433 347,1062 528,1062 528,922 347,922 347,301 C 347,250 350,217 357,202 363,187 373,176 388,167 402,158 422,154 449,154 469,154 495,156 528,161 Z"/>
   <glyph unicode="s" horiz-adv-x="886" d="M 63,317 L 241,345 C 251,274 279,219 325,181 370,143 434,124 516,124 599,124 660,141 700,175 740,208 760,248 760,293 760,334 742,366 707,389 682,405 621,425 523,450 391,483 300,512 249,537 198,561 159,595 133,638 106,681 93,728 93,780 93,827 104,871 126,912 147,952 177,985 214,1012 242,1033 280,1050 329,1065 377,1079 429,1086 484,1086 567,1086 641,1074 704,1050 767,1026 813,994 843,953 873,912 894,857 905,788 L 729,764 C 721,819 698,861 660,892 621,923 567,938 497,938 414,938 355,924 320,897 285,870 267,838 267,801 267,778 274,757 289,738 304,719 327,703 358,690 376,683 429,668 517,644 644,610 733,582 784,561 834,539 873,507 902,466 931,425 945,373 945,312 945,252 928,196 893,143 858,90 807,49 741,20 675,-10 600,-24 517,-24 379,-24 274,5 202,62 129,119 83,204 63,317 Z"/>
   <glyph unicode="r" horiz-adv-x="583" d="M 133,0 L 133,1062 295,1062 295,901 C 336,976 375,1026 410,1050 445,1074 483,1086 525,1086 586,1086 647,1067 710,1028 L 648,861 C 604,887 560,900 516,900 477,900 441,888 410,865 379,841 356,808 343,766 323,702 313,632 313,556 L 313,0 Z"/>
   <glyph unicode="p" horiz-adv-x="933" d="M 135,-407 L 135,1062 299,1062 299,924 C 338,978 381,1019 430,1046 479,1073 538,1086 607,1086 698,1086 778,1063 847,1016 916,969 969,904 1004,819 1039,734 1057,640 1057,539 1057,430 1038,333 999,246 960,159 903,92 829,46 754,-1 676,-24 594,-24 534,-24 480,-11 433,14 385,39 346,71 315,110 L 315,-407 Z M 298,525 C 298,388 326,287 381,222 436,157 503,124 582,124 662,124 731,158 788,226 845,293 873,398 873,540 873,675 845,777 790,844 734,911 667,945 590,945 513,945 446,909 387,838 328,766 298,662 298,525 Z"/>
   <glyph unicode="o" horiz-adv-x="1003" d="M 68,531 C 68,728 123,873 232,968 323,1047 435,1086 566,1086 712,1086 831,1038 924,943 1017,847 1063,715 1063,546 1063,409 1043,302 1002,224 961,145 901,84 823,41 744,-2 659,-24 566,-24 417,-24 297,24 206,119 114,214 68,352 68,531 Z M 253,531 C 253,395 283,293 342,226 401,158 476,124 566,124 655,124 730,158 789,226 848,294 878,398 878,537 878,668 848,768 789,836 729,903 655,937 566,937 476,937 401,903 342,836 283,769 253,667 253,531 Z"/>
   <glyph unicode="n" horiz-adv-x="863" d="M 135,0 L 135,1062 297,1062 297,911 C 375,1028 488,1086 635,1086 699,1086 758,1075 812,1052 865,1029 905,998 932,961 959,924 977,879 988,828 995,795 998,736 998,653 L 998,0 818,0 818,646 C 818,719 811,774 797,811 783,847 758,876 723,898 687,919 645,930 597,930 520,930 454,906 399,857 343,808 315,716 315,580 L 315,0 Z"/>
   <glyph unicode="m" horiz-adv-x="1445" d="M 135,0 L 135,1062 296,1062 296,913 C 329,965 374,1007 429,1039 484,1070 547,1086 618,1086 697,1086 761,1070 812,1037 862,1004 897,959 918,900 1002,1024 1111,1086 1246,1086 1351,1086 1432,1057 1489,999 1546,940 1574,850 1574,729 L 1574,0 1395,0 1395,669 C 1395,741 1389,793 1378,825 1366,856 1345,882 1314,901 1283,920 1247,930 1206,930 1131,930 1069,905 1020,856 971,806 946,726 946,617 L 946,0 766,0 766,690 C 766,770 751,830 722,870 693,910 645,930 578,930 527,930 481,917 438,890 395,863 363,824 344,773 325,722 315,648 315,551 L 315,0 Z"/>
   <glyph unicode="l" horiz-adv-x="187" d="M 131,0 L 131,1466 311,1466 311,0 Z"/>
   <glyph unicode="k" horiz-adv-x="886" d="M 136,0 L 136,1466 316,1466 316,630 742,1062 975,1062 569,668 1016,0 794,0 443,543 316,421 316,0 Z"/>
   <glyph unicode="i" horiz-adv-x="187" d="M 136,1259 L 136,1466 316,1466 316,1259 Z M 136,0 L 136,1062 316,1062 316,0 Z"/>
   <glyph unicode="h" horiz-adv-x="863" d="M 135,0 L 135,1466 315,1466 315,940 C 399,1037 505,1086 633,1086 712,1086 780,1071 838,1040 896,1009 938,966 963,911 988,856 1000,777 1000,673 L 1000,0 820,0 820,673 C 820,763 801,829 762,870 723,911 667,931 596,931 543,931 493,917 446,890 399,862 365,824 345,777 325,730 315,664 315,581 L 315,0 Z"/>
   <glyph unicode="f" horiz-adv-x="630" d="M 178,0 L 178,922 19,922 19,1062 178,1062 178,1175 C 178,1246 184,1299 197,1334 214,1381 245,1419 289,1448 332,1477 393,1491 472,1491 523,1491 579,1485 640,1473 L 613,1316 C 576,1323 540,1326 507,1326 452,1326 414,1314 391,1291 368,1268 357,1224 357,1160 L 357,1062 564,1062 564,922 357,922 357,0 Z"/>
   <glyph unicode="e" horiz-adv-x="980" d="M 862,342 L 1048,319 C 1019,210 964,126 885,66 806,6 704,-24 581,-24 426,-24 303,24 212,120 121,215 75,349 75,522 75,701 121,839 213,938 305,1037 424,1086 571,1086 713,1086 829,1038 919,941 1009,844 1054,708 1054,533 1054,522 1054,506 1053,485 L 261,485 C 268,368 301,279 360,217 419,155 493,124 582,124 648,124 704,141 751,176 798,211 835,266 862,342 Z M 271,633 L 864,633 C 856,722 833,789 796,834 739,903 664,938 573,938 490,938 421,910 365,855 308,800 277,726 271,633 Z"/>
   <glyph unicode="d" horiz-adv-x="910" d="M 824,0 L 824,134 C 757,29 658,-24 527,-24 442,-24 365,-1 294,46 223,93 168,158 129,242 90,325 70,421 70,530 70,636 88,732 123,819 158,905 211,971 282,1017 353,1063 432,1086 519,1086 583,1086 640,1073 690,1046 740,1019 781,983 812,940 L 812,1466 991,1466 991,0 Z M 255,530 C 255,394 284,292 341,225 398,158 466,124 544,124 623,124 690,156 745,221 800,285 827,383 827,515 827,660 799,767 743,835 687,903 618,937 536,937 456,937 389,904 336,839 282,774 255,671 255,530 Z"/>
   <glyph unicode="c" horiz-adv-x="933" d="M 828,389 L 1005,366 C 986,244 936,149 857,80 777,11 679,-24 563,-24 418,-24 301,24 213,119 124,214 80,350 80,527 80,642 99,742 137,828 175,914 233,979 311,1022 388,1065 473,1086 564,1086 679,1086 774,1057 847,999 920,940 967,857 988,750 L 813,723 C 796,794 767,848 725,884 682,920 631,938 571,938 480,938 407,906 350,841 293,776 265,673 265,532 265,389 292,286 347,221 402,156 473,124 561,124 632,124 691,146 738,189 785,232 815,299 828,389 Z"/>
   <glyph unicode="b" horiz-adv-x="933" d="M 301,0 L 134,0 134,1466 314,1466 314,943 C 390,1038 487,1086 605,1086 670,1086 732,1073 791,1047 849,1020 897,983 935,936 972,888 1002,830 1023,763 1044,696 1055,624 1055,547 1055,365 1010,224 920,125 830,26 722,-24 596,-24 471,-24 372,28 301,133 Z M 299,539 C 299,412 316,320 351,263 408,170 484,124 581,124 660,124 728,158 785,227 842,295 871,397 871,532 871,671 844,773 789,839 734,905 667,938 589,938 510,938 442,904 385,836 328,767 299,668 299,539 Z"/>
   <glyph unicode="a" horiz-adv-x="980" d="M 828,131 C 761,74 697,34 636,11 574,-12 508,-24 437,-24 320,-24 231,5 168,62 105,119 74,191 74,280 74,332 86,380 110,423 133,466 164,500 203,526 241,552 284,572 332,585 367,594 421,603 492,612 637,629 744,650 813,674 814,699 814,714 814,721 814,794 797,846 763,876 717,917 649,937 558,937 473,937 411,922 371,893 330,863 300,810 281,735 L 105,759 C 121,834 147,895 184,942 221,988 274,1024 343,1049 412,1074 493,1086 584,1086 675,1086 748,1075 805,1054 862,1033 903,1006 930,974 957,941 975,900 986,851 992,820 995,765 995,685 L 995,445 C 995,278 999,172 1007,128 1014,83 1029,41 1052,0 L 864,0 C 845,37 833,81 828,131 Z M 813,533 C 748,506 650,484 519,465 445,454 393,442 362,429 331,416 308,396 291,371 274,345 266,316 266,285 266,237 284,197 321,165 357,133 410,117 480,117 549,117 611,132 665,163 719,193 759,234 784,287 803,328 813,388 813,467 Z"/>
   <glyph unicode="T" horiz-adv-x="1142" d="M 531,0 L 531,1293 48,1293 48,1466 1210,1466 1210,1293 725,1293 725,0 Z"/>
   <glyph unicode="S" horiz-adv-x="1189" d="M 92,471 L 275,487 C 284,414 304,354 336,307 367,260 416,222 483,193 550,164 625,149 708,149 782,149 847,160 904,182 961,204 1003,234 1031,273 1058,311 1072,353 1072,398 1072,444 1059,484 1032,519 1005,553 961,582 900,605 861,620 774,644 639,677 504,709 410,739 356,768 286,805 234,850 200,905 165,959 148,1020 148,1087 148,1161 169,1230 211,1295 253,1359 314,1408 395,1441 476,1474 565,1491 664,1491 773,1491 869,1474 952,1439 1035,1404 1098,1352 1143,1284 1188,1216 1212,1139 1215,1053 L 1029,1039 C 1019,1132 985,1202 928,1249 870,1296 785,1320 672,1320 555,1320 469,1299 416,1256 362,1213 335,1161 335,1100 335,1047 354,1004 392,970 429,936 527,901 685,866 842,830 950,799 1009,772 1094,733 1157,683 1198,623 1239,562 1259,493 1259,414 1259,336 1237,263 1192,194 1147,125 1083,71 1000,33 916,-6 822,-25 717,-25 584,-25 473,-6 384,33 294,72 224,130 173,208 122,285 95,373 92,471 Z"/>
   <glyph unicode="R" horiz-adv-x="1306" d="M 161,0 L 161,1466 811,1466 C 942,1466 1041,1453 1109,1427 1177,1400 1231,1354 1272,1287 1313,1220 1333,1147 1333,1066 1333,962 1299,874 1232,803 1165,732 1061,686 920,667 971,642 1010,618 1037,594 1094,542 1147,477 1198,399 L 1453,0 1209,0 1015,305 C 958,393 912,460 875,507 838,554 806,586 777,605 748,624 718,637 688,644 666,649 630,651 580,651 L 355,651 355,0 Z M 355,819 L 772,819 C 861,819 930,828 980,847 1030,865 1068,894 1094,935 1120,975 1133,1019 1133,1066 1133,1135 1108,1192 1058,1237 1007,1282 928,1304 819,1304 L 355,1304 Z"/>
   <glyph unicode="O" horiz-adv-x="1399" d="M 99,714 C 99,957 164,1148 295,1286 426,1423 594,1492 801,1492 936,1492 1058,1460 1167,1395 1276,1330 1359,1240 1416,1125 1473,1009 1501,878 1501,731 1501,582 1471,449 1411,332 1351,215 1266,126 1156,66 1046,5 927,-25 800,-25 662,-25 539,8 430,75 321,142 239,233 183,348 127,463 99,585 99,714 Z M 299,711 C 299,534 347,395 442,294 537,192 656,141 799,141 945,141 1065,192 1160,295 1254,398 1301,543 1301,732 1301,851 1281,956 1241,1045 1200,1134 1141,1203 1064,1252 986,1301 899,1325 802,1325 665,1325 547,1278 448,1184 349,1089 299,932 299,711 Z"/>
   <glyph unicode="N" horiz-adv-x="1166" d="M 156,0 L 156,1466 355,1466 1125,315 1125,1466 1311,1466 1311,0 1112,0 342,1152 342,0 Z"/>
   <glyph unicode="L" horiz-adv-x="910" d="M 150,0 L 150,1466 344,1466 344,173 1066,173 1066,0 Z"/>
   <glyph unicode="G" horiz-adv-x="1353" d="M 844,575 L 844,747 1465,748 1465,204 C 1370,128 1271,71 1170,33 1069,-6 965,-25 858,-25 714,-25 583,6 466,68 348,129 259,218 199,335 139,452 109,582 109,726 109,869 139,1002 199,1126 258,1249 344,1341 456,1401 568,1461 697,1491 843,1491 949,1491 1045,1474 1131,1440 1216,1405 1283,1357 1332,1296 1381,1235 1418,1155 1443,1056 L 1268,1008 C 1246,1083 1219,1141 1186,1184 1153,1227 1107,1261 1046,1287 985,1312 918,1325 844,1325 755,1325 679,1312 614,1285 549,1258 497,1222 458,1178 418,1134 387,1086 365,1033 328,942 309,844 309,738 309,607 332,498 377,410 422,322 487,257 573,214 659,171 750,150 847,150 931,150 1013,166 1093,199 1173,231 1234,265 1275,302 L 1275,575 Z"/>
   <glyph unicode="E" horiz-adv-x="1096" d="M 162,0 L 162,1466 1222,1466 1222,1293 356,1293 356,844 1167,844 1167,672 356,672 356,173 1256,173 1256,0 Z"/>
   <glyph unicode="C" horiz-adv-x="1283" d="M 1204,514 L 1398,465 C 1357,306 1284,184 1179,101 1073,17 944,-25 791,-25 633,-25 505,7 406,72 307,136 231,229 180,351 128,473 102,604 102,744 102,897 131,1030 190,1144 248,1257 331,1344 439,1403 546,1462 665,1491 794,1491 941,1491 1064,1454 1164,1379 1264,1304 1334,1199 1373,1064 L 1182,1019 C 1148,1126 1099,1203 1034,1252 969,1301 888,1325 790,1325 677,1325 583,1298 508,1244 432,1190 379,1118 348,1027 317,936 302,842 302,745 302,620 320,512 357,419 393,326 449,256 526,210 603,164 686,141 775,141 884,141 976,172 1051,235 1126,298 1177,391 1204,514 Z"/>
   <glyph unicode="B" horiz-adv-x="1096" d="M 150,0 L 150,1466 700,1466 C 812,1466 902,1451 970,1422 1037,1392 1090,1346 1129,1285 1167,1223 1186,1158 1186,1091 1186,1028 1169,969 1135,914 1101,859 1050,814 981,780 1070,754 1138,710 1186,647 1233,584 1257,510 1257,425 1257,356 1243,293 1214,234 1185,175 1149,129 1106,97 1063,65 1010,41 946,25 881,8 802,0 709,0 Z M 344,850 L 661,850 C 747,850 809,856 846,867 895,882 933,906 958,940 983,974 995,1017 995,1068 995,1117 983,1160 960,1197 937,1234 903,1259 860,1273 817,1286 742,1293 637,1293 L 344,1293 Z M 344,173 L 709,173 C 772,173 816,175 841,180 886,188 923,201 953,220 983,239 1008,266 1027,302 1046,337 1056,378 1056,425 1056,480 1042,527 1014,568 986,608 947,636 898,653 848,669 776,677 683,677 L 344,677 Z"/>
   <glyph unicode=":" horiz-adv-x="211" d="M 185,857 L 185,1062 390,1062 390,857 Z M 185,0 L 185,205 390,205 390,0 Z"/>
   <glyph unicode="9" horiz-adv-x="980" d="M 112,339 L 285,355 C 300,274 328,215 369,178 410,141 463,123 528,123 583,123 632,136 674,161 715,186 749,220 776,263 803,305 825,362 843,434 861,506 870,579 870,654 870,662 870,674 869,690 833,633 784,586 722,551 659,515 592,497 519,497 398,497 295,541 211,629 127,717 85,833 85,977 85,1126 129,1245 217,1336 304,1427 414,1472 546,1472 641,1472 729,1446 808,1395 887,1344 947,1271 988,1176 1029,1081 1049,943 1049,763 1049,576 1029,427 988,316 947,205 887,120 807,62 726,4 632,-25 524,-25 409,-25 316,7 243,71 170,134 127,224 112,339 Z M 849,986 C 849,1089 822,1171 767,1232 712,1293 645,1323 568,1323 488,1323 418,1290 359,1225 300,1160 270,1075 270,971 270,878 298,802 355,744 411,685 480,656 563,656 646,656 715,685 769,744 822,802 849,883 849,986 Z"/>
   <glyph unicode="8" horiz-adv-x="980" d="M 362,795 C 287,822 232,861 196,912 160,963 142,1023 142,1094 142,1201 180,1290 257,1363 334,1436 436,1472 563,1472 691,1472 794,1435 872,1361 950,1286 989,1196 989,1089 989,1021 971,962 936,912 900,861 846,822 773,795 863,766 932,718 979,653 1026,588 1049,510 1049,419 1049,294 1005,188 916,103 827,18 711,-25 566,-25 421,-25 305,18 216,104 127,189 83,296 83,424 83,519 107,599 156,664 204,728 273,772 362,795 Z M 326,1100 C 326,1031 348,974 393,930 438,886 496,864 567,864 636,864 693,886 738,930 782,973 804,1027 804,1090 804,1156 781,1212 736,1257 690,1302 633,1324 565,1324 496,1324 439,1302 394,1258 349,1214 326,1161 326,1100 Z M 268,423 C 268,372 280,322 305,274 329,226 365,189 413,163 461,136 513,123 568,123 654,123 725,151 781,206 837,261 865,332 865,417 865,504 836,575 779,632 721,689 649,717 562,717 477,717 407,689 352,633 296,577 268,507 268,423 Z"/>
   <glyph unicode="7" horiz-adv-x="933" d="M 97,1274 L 97,1447 1046,1447 1046,1307 C 953,1208 860,1076 769,911 677,746 606,577 556,403 520,280 497,146 487,0 L 302,0 C 304,115 327,255 370,418 413,581 476,739 557,891 638,1042 724,1170 815,1274 Z"/>
   <glyph unicode="6" horiz-adv-x="956" d="M 1019,1107 L 840,1093 C 824,1164 801,1215 772,1247 723,1298 663,1324 592,1324 535,1324 484,1308 441,1276 384,1235 340,1174 307,1095 274,1016 257,903 256,756 299,822 352,871 415,903 478,935 543,951 612,951 732,951 834,907 919,819 1003,730 1045,616 1045,476 1045,384 1025,299 986,220 946,141 891,80 822,38 753,-4 674,-25 586,-25 436,-25 314,30 219,141 124,251 77,433 77,686 77,969 129,1175 234,1304 325,1416 448,1472 603,1472 718,1472 813,1440 887,1375 960,1310 1004,1221 1019,1107 Z M 284,475 C 284,413 297,354 324,297 350,240 387,197 434,168 481,138 531,123 583,123 659,123 724,154 779,215 834,276 861,360 861,465 861,566 834,646 780,705 726,763 658,792 576,792 495,792 426,763 369,705 312,646 284,570 284,475 Z"/>
   <glyph unicode="5" horiz-adv-x="980" d="M 85,384 L 274,400 C 288,308 321,239 372,193 423,146 484,123 556,123 643,123 716,156 776,221 836,286 866,373 866,481 866,584 837,665 780,724 722,783 646,813 553,813 495,813 443,800 396,774 349,747 313,713 286,671 L 117,693 259,1446 988,1446 988,1274 403,1274 324,880 C 412,941 504,972 601,972 729,972 837,928 925,839 1013,750 1057,636 1057,497 1057,364 1018,250 941,153 847,34 719,-25 556,-25 423,-25 314,12 230,87 145,162 97,261 85,384 Z"/>
   <glyph unicode="4" horiz-adv-x="1003" d="M 662,0 L 662,351 26,351 26,516 695,1466 842,1466 842,516 1040,516 1040,351 842,351 842,0 Z M 662,516 L 662,1177 203,516 Z"/>
   <glyph unicode="3" horiz-adv-x="956" d="M 86,387 L 266,411 C 287,309 322,236 372,191 421,146 482,123 553,123 638,123 709,152 768,211 826,270 855,342 855,429 855,512 828,580 774,634 720,687 651,714 568,714 534,714 492,707 441,694 L 461,852 C 473,851 483,850 490,850 567,850 636,870 697,910 758,950 789,1012 789,1095 789,1161 767,1216 722,1259 677,1302 620,1324 549,1324 479,1324 421,1302 374,1258 327,1214 297,1148 284,1060 L 104,1092 C 126,1213 176,1306 254,1373 332,1439 429,1472 545,1472 625,1472 699,1455 766,1421 833,1386 885,1339 921,1280 956,1221 974,1158 974,1091 974,1028 957,970 923,918 889,866 839,825 772,794 859,774 926,733 974,670 1022,607 1046,528 1046,433 1046,305 999,197 906,108 813,19 695,-26 552,-26 423,-26 317,12 232,89 147,166 98,265 86,387 Z"/>
   <glyph unicode="1" horiz-adv-x="537" d="M 763,0 L 583,0 583,1147 C 540,1106 483,1064 413,1023 342,982 279,951 223,930 L 223,1104 C 324,1151 412,1209 487,1276 562,1343 616,1409 647,1472 L 763,1472 Z"/>
   <glyph unicode="0" horiz-adv-x="956" d="M 85,723 C 85,896 103,1036 139,1142 174,1247 227,1329 298,1386 368,1443 456,1472 563,1472 642,1472 711,1456 770,1425 829,1393 878,1347 917,1288 956,1228 986,1155 1008,1070 1030,984 1041,868 1041,723 1041,551 1023,412 988,307 953,201 900,119 830,62 759,4 670,-25 563,-25 422,-25 311,26 230,127 133,249 85,448 85,723 Z M 270,723 C 270,482 298,322 355,243 411,163 480,123 563,123 646,123 715,163 772,243 828,323 856,483 856,723 856,964 828,1125 772,1204 715,1283 645,1323 561,1323 478,1323 412,1288 363,1218 301,1129 270,964 270,723 Z"/>
   <glyph unicode="-" horiz-adv-x="560" d="M 65,440 L 65,621 618,621 618,440 Z"/>
   <glyph unicode=")" horiz-adv-x="490" d="M 253,-431 L 124,-431 C 323,-111 423,209 423,530 423,655 409,780 380,903 357,1003 326,1099 285,1191 259,1251 205,1351 124,1491 L 253,1491 C 378,1324 471,1156 531,987 582,842 608,690 608,531 608,351 574,177 505,9 436,-159 352,-306 253,-431 Z"/>
   <glyph unicode="(" horiz-adv-x="490" d="M 479,-431 C 380,-306 296,-159 227,9 158,177 124,351 124,531 124,690 150,842 201,987 261,1156 354,1324 479,1491 L 608,1491 C 527,1352 474,1253 448,1194 407,1102 375,1006 352,906 323,781 309,656 309,530 309,209 409,-111 608,-431 Z"/>
   <glyph unicode=" " horiz-adv-x="559"/>
  </font>
 </defs>
 <defs>
  <font id="EmbeddedFont_2" horiz-adv-x="2048">
   <font-face font-family="Arial embedded" units-per-em="2048" font-weight="bold" font-style="normal" ascent="1864" descent="443"/>
   <missing-glyph horiz-adv-x="2048" d="M 0,0 L 2047,0 2047,2047 0,2047 0,0 Z"/>
   <glyph unicode="x" horiz-adv-x="1120" d="M 12,0 L 395,547 28,1062 371,1062 559,770 757,1062 1087,1062 727,559 1120,0 775,0 559,329 341,0 Z"/>
   <glyph unicode="b" horiz-adv-x="1049" d="M 135,0 L 135,1466 416,1466 416,938 C 503,1037 605,1086 724,1086 853,1086 960,1039 1045,946 1130,852 1172,717 1172,542 1172,361 1129,221 1043,123 956,25 851,-24 728,-24 667,-24 608,-9 549,22 490,52 439,97 396,156 L 396,0 Z M 414,554 C 414,444 431,363 466,310 515,235 579,198 660,198 722,198 775,225 819,278 862,331 884,414 884,528 884,649 862,737 818,791 774,844 718,871 649,871 582,871 526,845 481,793 436,740 414,661 414,554 Z"/>
   <glyph unicode="G" horiz-adv-x="1376" d="M 831,539 L 831,786 1469,786 1469,202 C 1407,142 1317,89 1200,44 1082,-2 963,-25 842,-25 689,-25 555,7 441,72 327,136 241,228 184,348 127,467 98,597 98,738 98,891 130,1026 194,1145 258,1264 352,1355 475,1418 569,1467 686,1491 826,1491 1008,1491 1150,1453 1253,1377 1355,1300 1421,1195 1450,1060 L 1156,1005 C 1135,1077 1097,1134 1040,1176 983,1217 911,1238 826,1238 697,1238 594,1197 518,1115 441,1033 403,911 403,750 403,576 442,446 519,359 596,272 698,228 823,228 885,228 947,240 1010,265 1072,289 1125,318 1170,353 L 1170,539 Z"/>
   <glyph unicode="7" horiz-adv-x="956" d="M 87,1185 L 87,1446 1048,1446 1048,1242 C 969,1164 888,1052 806,906 724,760 662,605 619,441 576,276 554,129 555,0 L 284,0 C 289,203 331,409 410,620 489,831 594,1019 726,1185 Z"/>
   <glyph unicode="4" horiz-adv-x="1050" d="M 638,0 L 638,295 38,295 38,541 674,1472 910,1472 910,542 1092,542 1092,295 910,295 910,0 Z M 638,542 L 638,1043 301,542 Z"/>
   <glyph unicode="2" horiz-adv-x="979" d="M 1036,261 L 1036,0 51,0 C 62,99 94,192 147,281 200,369 306,486 463,632 590,750 667,830 696,872 735,930 754,987 754,1044 754,1107 737,1155 704,1189 670,1222 623,1239 564,1239 505,1239 459,1221 424,1186 389,1151 369,1092 364,1010 L 84,1038 C 101,1193 153,1304 241,1371 329,1438 439,1472 571,1472 716,1472 829,1433 912,1355 995,1277 1036,1180 1036,1064 1036,998 1024,935 1001,876 977,816 939,753 888,688 854,645 793,582 704,501 615,420 559,366 536,339 512,312 493,286 478,261 Z"/>
   <glyph unicode="1" horiz-adv-x="653" d="M 806,0 L 525,0 525,1059 C 422,963 301,892 162,846 L 162,1101 C 235,1125 315,1171 401,1238 487,1305 546,1383 578,1472 L 806,1472 Z"/>
   <glyph unicode="0" horiz-adv-x="956" d="M 562,1472 C 704,1472 815,1421 895,1320 990,1200 1038,1001 1038,723 1038,446 990,246 894,125 815,25 704,-25 562,-25 419,-25 304,30 217,140 130,249 86,445 86,726 86,1002 134,1201 230,1322 309,1422 420,1472 562,1472 Z M 562,1239 C 528,1239 498,1228 471,1207 444,1185 424,1146 409,1090 390,1017 380,895 380,723 380,551 389,433 406,369 423,304 445,261 472,240 498,219 528,208 562,208 596,208 626,219 653,241 680,262 700,301 715,357 734,429 744,551 744,723 744,895 735,1013 718,1078 701,1142 679,1185 653,1207 626,1228 596,1239 562,1239 Z"/>
  </font>
 </defs>
 <defs>
  <font id="EmbeddedFont_3" horiz-adv-x="2048">
   <font-face font-family="Bitstream Vera Serif embedded" units-per-em="2048" font-weight="normal" font-style="normal" ascent="1911" descent="489"/>
   <missing-glyph horiz-adv-x="2048" d="M 0,0 L 2047,0 2047,2047 0,2047 0,0 Z"/>
   <glyph unicode="z" horiz-adv-x="933" d="M 82,0 L 82,86 748,956 221,956 221,772 115,772 115,1063 985,1063 985,977 319,106 897,106 897,299 1004,299 1004,0 Z"/>
   <glyph unicode="x" horiz-adv-x="1097" d="M 596,649 L 819,956 676,956 676,1063 1085,1063 1085,956 944,956 659,563 991,106 1130,106 1130,0 639,0 639,106 774,106 543,424 311,106 449,106 449,0 45,0 45,106 186,106 479,510 156,956 25,956 25,1063 500,1063 500,956 373,956 Z"/>
   <glyph unicode="u" horiz-adv-x="1189" d="M 725,1063 L 1069,1063 1069,106 1243,106 1243,0 885,0 885,188 C 851,117 807,64 753,27 699,-11 636,-29 565,-29 447,-29 360,5 305,72 249,139 221,244 221,387 L 221,956 55,956 55,1063 406,1063 406,444 C 406,315 422,226 454,178 485,130 542,106 623,106 708,106 773,137 818,200 863,263 885,354 885,473 L 885,956 725,956 Z"/>
   <glyph unicode="t" horiz-adv-x="746" d="M 221,956 L 59,956 59,1063 221,1063 221,1393 406,1393 406,1063 752,1063 752,956 406,956 406,281 C 406,191 415,133 432,108 449,83 481,70 528,70 576,70 611,84 633,113 655,141 667,187 668,250 L 807,250 C 802,153 775,83 728,38 681,-7 609,-29 512,-29 406,-29 331,-6 287,42 243,89 221,168 221,281 Z"/>
   <glyph unicode="s" horiz-adv-x="840" d="M 115,59 L 115,307 221,307 C 224,228 249,168 296,129 343,90 412,70 504,70 587,70 650,86 693,117 736,148 758,193 758,252 758,299 742,336 711,365 679,394 612,424 510,457 L 377,502 C 286,531 220,568 179,612 138,656 117,712 117,780 117,877 153,954 224,1009 295,1064 394,1092 520,1092 576,1092 635,1085 697,1070 759,1055 823,1034 889,1006 L 889,774 783,774 C 780,843 756,896 711,935 666,974 604,993 526,993 449,993 390,979 351,952 311,925 291,884 291,829 291,784 306,749 336,722 366,695 426,667 516,639 L 662,594 C 763,563 835,524 880,477 924,430 946,369 946,295 946,194 908,115 831,58 754,0 647,-29 512,-29 443,-29 376,-22 311,-7 246,8 180,30 115,59 Z"/>
   <glyph unicode="r" horiz-adv-x="910" d="M 979,1065 L 979,799 873,799 C 870,852 855,891 829,917 803,943 765,956 715,956 624,956 555,925 507,862 458,799 434,709 434,592 L 434,106 647,106 647,0 84,0 84,106 250,106 250,958 74,958 74,1063 434,1063 434,874 C 470,948 516,1003 573,1039 630,1074 699,1092 780,1092 810,1092 842,1090 875,1085 908,1080 942,1074 979,1065 Z"/>
   <glyph unicode="p" horiz-adv-x="1142" d="M 420,584 L 420,479 C 420,351 445,254 494,187 543,120 614,86 707,86 801,86 872,124 921,199 969,274 993,385 993,532 993,679 969,790 921,865 872,940 801,977 707,977 614,977 543,943 494,876 445,809 420,711 420,584 Z M 236,956 L 59,956 59,1063 420,1063 420,897 C 456,964 502,1013 558,1045 613,1076 682,1092 764,1092 895,1092 1001,1040 1084,937 1167,834 1208,699 1208,532 1208,365 1167,230 1084,127 1001,23 895,-29 764,-29 682,-29 613,-13 558,19 502,50 456,99 420,166 L 420,-319 594,-319 594,-426 59,-426 59,-319 236,-319 Z"/>
   <glyph unicode="o" horiz-adv-x="1027" d="M 616,70 C 715,70 789,109 840,187 890,265 915,380 915,532 915,684 890,799 840,877 789,954 715,993 616,993 517,993 443,954 393,877 342,799 317,684 317,532 317,380 342,265 393,187 444,109 518,70 616,70 Z M 616,-29 C 461,-29 337,22 243,125 149,227 102,363 102,532 102,701 149,837 243,939 336,1041 461,1092 616,1092 771,1092 896,1041 990,939 1083,837 1130,701 1130,532 1130,363 1083,227 990,125 896,22 771,-29 616,-29 Z"/>
   <glyph unicode="n" horiz-adv-x="1189" d="M 84,0 L 84,106 250,106 250,956 74,956 74,1063 434,1063 434,874 C 468,946 512,1000 567,1037 621,1074 684,1092 756,1092 873,1092 960,1058 1015,991 1070,924 1098,819 1098,676 L 1098,106 1262,106 1262,0 754,0 754,106 913,106 913,618 C 913,748 897,837 865,886 833,934 777,958 696,958 611,958 546,927 501,865 456,802 434,711 434,592 L 434,106 594,106 594,0 Z"/>
   <glyph unicode="m" horiz-adv-x="1795" d="M 1061,856 C 1096,934 1142,993 1197,1033 1252,1072 1316,1092 1389,1092 1500,1092 1583,1058 1638,989 1693,920 1720,815 1720,676 L 1720,106 1886,106 1886,0 1376,0 1376,106 1536,106 1536,655 C 1536,764 1520,841 1488,887 1456,933 1403,956 1329,956 1247,956 1185,925 1142,863 1099,801 1077,711 1077,592 L 1077,106 1237,106 1237,0 733,0 733,106 893,106 893,662 C 893,768 877,844 845,889 813,934 760,956 686,956 604,956 542,925 499,863 456,801 434,711 434,592 L 434,106 594,106 594,0 84,0 84,106 250,106 250,958 74,958 74,1063 434,1063 434,874 C 468,945 511,999 564,1036 617,1073 676,1092 743,1092 826,1092 895,1072 950,1031 1005,990 1042,931 1061,856 Z"/>
   <glyph unicode="l" horiz-adv-x="537" d="M 420,106 L 594,106 594,0 59,0 59,106 236,106 236,1450 59,1450 59,1556 420,1556 Z"/>
   <glyph unicode="i" horiz-adv-x="537" d="M 199,1393 C 199,1424 210,1450 233,1473 255,1496 282,1507 313,1507 344,1507 370,1496 393,1473 415,1450 426,1424 426,1393 426,1362 415,1335 393,1313 371,1291 344,1280 313,1280 282,1280 255,1291 233,1313 210,1335 199,1362 199,1393 Z M 434,106 L 608,106 608,0 74,0 74,106 250,106 250,956 74,956 74,1063 434,1063 Z"/>
   <glyph unicode="f" horiz-adv-x="793" d="M 881,1305 L 784,1305 C 783,1355 769,1393 742,1419 714,1445 674,1458 621,1458 552,1458 504,1439 476,1402 448,1364 434,1297 434,1200 L 434,1063 731,1063 731,956 434,956 434,106 670,106 670,0 74,0 74,106 250,106 250,956 74,956 74,1063 250,1063 250,1196 C 250,1315 281,1404 343,1465 404,1526 495,1556 614,1556 659,1556 703,1552 748,1544 793,1536 837,1524 881,1507 Z"/>
   <glyph unicode="e" horiz-adv-x="1003" d="M 1110,512 L 317,512 317,504 C 317,361 344,253 398,180 452,107 532,70 637,70 718,70 784,91 836,134 887,176 923,239 944,322 L 1092,322 C 1063,205 1009,118 930,59 851,0 747,-29 618,-29 463,-29 338,22 244,125 149,227 102,363 102,532 102,700 148,835 241,938 334,1041 455,1092 606,1092 767,1092 890,1043 976,944 1062,845 1107,701 1110,512 Z M 893,618 C 889,742 863,836 815,899 766,962 697,993 606,993 521,993 455,961 406,898 357,835 328,741 317,618 Z"/>
   <glyph unicode="d" horiz-adv-x="1143" d="M 1075,106 L 1251,106 1251,0 891,0 891,166 C 855,99 809,50 754,19 698,-13 629,-29 547,-29 416,-29 310,23 227,127 144,230 102,365 102,532 102,699 143,834 226,937 309,1040 416,1092 547,1092 629,1092 698,1076 754,1045 809,1013 855,964 891,897 L 891,1450 717,1450 717,1556 1075,1556 Z M 891,479 L 891,584 C 891,711 867,809 818,876 769,943 697,977 604,977 509,977 438,940 390,865 341,790 317,679 317,532 317,385 341,274 390,199 438,124 509,86 604,86 697,86 769,120 818,187 867,254 891,351 891,479 Z"/>
   <glyph unicode="c" horiz-adv-x="957" d="M 1053,319 C 1027,206 977,119 903,60 829,1 733,-29 616,-29 461,-29 337,22 243,125 149,227 102,363 102,532 102,702 149,838 243,940 337,1041 461,1092 616,1092 683,1092 750,1084 817,1069 884,1053 951,1029 1018,997 L 1018,725 911,725 C 897,818 867,886 820,929 773,972 705,993 618,993 519,993 444,955 393,878 342,801 317,685 317,532 317,379 342,263 393,186 443,109 518,70 618,70 697,70 761,91 808,132 855,173 888,236 905,319 Z"/>
   <glyph unicode="b" horiz-adv-x="1142" d="M 236,106 L 236,1450 59,1450 59,1556 420,1556 420,897 C 456,964 502,1013 558,1045 613,1076 682,1092 764,1092 895,1092 1001,1040 1084,937 1167,834 1208,699 1208,532 1208,365 1167,230 1084,127 1001,23 895,-29 764,-29 682,-29 613,-13 558,19 502,50 456,99 420,166 L 420,0 59,0 59,106 Z M 420,479 C 420,351 445,254 494,187 543,120 614,86 707,86 801,86 872,124 921,199 969,274 993,385 993,532 993,679 969,790 921,865 872,940 801,977 707,977 614,977 543,943 494,876 445,809 420,711 420,584 Z"/>
   <glyph unicode="a" horiz-adv-x="1050" d="M 815,334 L 815,559 578,559 C 487,559 419,539 374,500 329,461 307,400 307,319 307,245 330,186 375,143 420,100 482,78 559,78 636,78 698,102 745,149 792,196 815,258 815,334 Z M 999,664 L 999,106 1163,106 1163,0 815,0 815,115 C 774,66 727,29 674,6 621,-17 558,-29 487,-29 369,-29 275,2 206,65 137,128 102,212 102,319 102,429 142,514 221,575 300,636 412,666 557,666 L 815,666 815,739 C 815,820 791,882 742,927 693,971 624,993 535,993 462,993 403,976 360,943 317,910 290,860 279,795 L 184,795 184,1010 C 248,1037 310,1058 371,1072 431,1085 490,1092 547,1092 694,1092 807,1056 884,983 961,910 999,803 999,664 Z"/>
   <glyph unicode="Z" horiz-adv-x="1259" d="M 92,0 L 92,72 1022,1370 250,1370 250,1147 127,1147 127,1493 1307,1493 1307,1421 377,123 1221,123 1221,332 1343,332 1343,0 Z"/>
   <glyph unicode="T" horiz-adv-x="1329" d="M 391,0 L 391,106 582,106 582,1374 143,1374 143,1141 20,1141 20,1493 1346,1493 1346,1141 1223,1141 1223,1374 784,1374 784,106 975,106 975,0 Z"/>
   <glyph unicode="S" horiz-adv-x="1073" d="M 190,72 L 190,412 305,411 C 308,298 341,214 404,160 466,105 561,78 688,78 807,78 897,102 960,149 1022,196 1053,264 1053,354 1053,426 1034,481 997,520 959,559 879,596 758,633 L 561,692 C 418,735 318,789 260,854 201,919 172,1007 172,1120 172,1247 217,1345 307,1415 397,1485 523,1520 686,1520 755,1520 831,1513 914,1498 997,1483 1085,1461 1178,1432 L 1178,1114 1065,1114 C 1054,1219 1019,1296 960,1343 901,1390 811,1413 690,1413 585,1413 505,1392 450,1349 395,1306 367,1243 367,1161 367,1090 388,1034 429,993 470,952 558,912 692,872 L 877,817 C 1012,776 1109,725 1167,662 1224,599 1253,514 1253,408 1253,263 1207,154 1114,81 1021,8 883,-29 700,-29 618,-29 535,-21 450,-4 365,13 278,38 190,72 Z"/>
   <glyph unicode="R" horiz-adv-x="1493" d="M 981,741 C 1028,728 1068,707 1102,677 1135,646 1165,604 1192,549 L 1409,106 1591,106 1591,0 1239,0 1006,475 C 961,567 920,627 883,654 846,681 794,694 729,694 L 506,694 506,106 717,106 717,0 113,0 113,106 303,106 303,1386 113,1386 113,1493 870,1493 C 1015,1493 1128,1458 1207,1389 1286,1320 1325,1221 1325,1094 1325,991 1296,911 1239,852 1181,793 1095,756 981,741 Z M 506,801 L 801,801 C 902,801 976,825 1024,873 1072,920 1096,994 1096,1094 1096,1194 1072,1268 1024,1315 976,1362 902,1386 801,1386 L 506,1386 Z"/>
   <glyph unicode="M" horiz-adv-x="1889" d="M 113,0 L 113,106 303,106 303,1386 102,1386 102,1493 537,1493 1061,430 1585,1493 1993,1493 1993,1386 1794,1386 1794,106 1985,106 1985,0 1401,0 1401,106 1591,106 1591,1260 1079,219 938,219 426,1260 426,106 616,106 616,0 Z"/>
   <glyph unicode="E" horiz-adv-x="1236" d="M 113,0 L 113,106 303,106 303,1386 113,1386 113,1493 1315,1493 1315,1161 1192,1161 1192,1370 506,1370 506,870 995,870 995,1057 1118,1057 1118,561 995,561 995,748 506,748 506,123 1208,123 1208,332 1331,332 1331,0 Z"/>
   <glyph unicode="D" horiz-adv-x="1423" d="M 506,106 L 692,106 C 886,106 1035,161 1139,272 1242,383 1294,541 1294,748 1294,955 1242,1113 1139,1222 1036,1331 887,1386 692,1386 L 506,1386 Z M 113,0 L 113,106 303,106 303,1386 113,1386 113,1493 707,1493 C 964,1493 1165,1427 1309,1296 1452,1165 1524,982 1524,748 1524,513 1452,330 1308,198 1164,66 964,0 707,0 Z"/>
   <glyph unicode="C" horiz-adv-x="1329" d="M 1444,395 C 1400,256 1326,150 1223,79 1119,7 988,-29 829,-29 732,-29 641,-12 558,21 475,54 401,103 336,168 261,243 206,328 170,423 133,518 115,625 115,745 115,977 182,1164 316,1307 450,1449 627,1520 846,1520 927,1520 1014,1509 1106,1488 1198,1467 1297,1434 1403,1391 L 1403,1047 1290,1047 C 1265,1172 1216,1265 1142,1324 1067,1383 963,1413 829,1413 670,1413 549,1357 467,1244 385,1131 344,964 344,745 344,526 385,361 467,248 549,135 670,78 829,78 940,78 1032,105 1104,158 1176,211 1228,290 1260,395 Z"/>
   <glyph unicode="B" horiz-adv-x="1283" d="M 506,106 L 805,106 C 925,106 1013,132 1068,184 1123,236 1151,319 1151,432 1151,545 1124,627 1069,679 1014,730 926,756 805,756 L 506,756 Z M 506,862 L 760,862 C 869,862 949,883 1000,925 1050,967 1075,1033 1075,1124 1075,1215 1050,1282 1000,1324 949,1365 869,1386 760,1386 L 506,1386 Z M 113,0 L 113,106 303,106 303,1386 113,1386 113,1493 850,1493 C 1001,1493 1114,1462 1191,1401 1267,1339 1305,1247 1305,1124 1305,1035 1279,965 1226,912 1173,859 1095,827 993,815 1120,799 1216,759 1282,694 1347,629 1380,541 1380,432 1380,284 1333,175 1240,105 1147,35 1001,0 803,0 Z"/>
   <glyph unicode="9" horiz-adv-x="1026" d="M 958,669 C 913,619 862,582 804,557 746,532 681,520 608,520 460,520 343,565 258,654 172,743 129,865 129,1020 129,1171 176,1293 269,1384 362,1475 486,1520 641,1520 810,1520 939,1457 1030,1332 1120,1206 1165,1026 1165,793 1165,532 1111,329 1004,186 897,43 746,-29 551,-29 498,-29 443,-24 385,-14 327,-4 268,11 207,31 L 207,279 319,279 C 328,212 354,160 397,124 440,88 498,70 571,70 700,70 797,119 860,217 923,314 956,465 958,669 Z M 633,1421 C 538,1421 466,1387 416,1318 365,1249 340,1149 340,1020 340,891 365,791 416,722 466,653 538,618 633,618 728,618 800,652 851,719 901,786 926,882 926,1008 926,1141 901,1243 850,1314 799,1385 727,1421 633,1421 Z"/>
   <glyph unicode="8" horiz-adv-x="1026" d="M 954,408 C 954,515 928,598 875,657 822,716 747,745 651,745 555,745 481,716 428,657 375,598 348,515 348,408 348,301 375,218 428,159 481,100 555,70 651,70 747,70 822,100 875,159 928,218 954,301 954,408 Z M 913,1133 C 913,1224 890,1294 844,1345 798,1396 734,1421 651,1421 569,1421 505,1396 459,1345 412,1294 389,1224 389,1133 389,1042 412,971 459,920 505,869 569,844 651,844 734,844 798,869 844,920 890,971 913,1042 913,1133 Z M 805,795 C 918,780 1007,738 1070,670 1133,601 1165,514 1165,408 1165,268 1121,160 1032,85 943,9 816,-29 651,-29 486,-29 360,9 271,85 182,160 137,268 137,408 137,514 169,601 232,670 295,738 384,780 498,795 397,813 320,851 267,910 213,968 186,1042 186,1133 186,1253 227,1348 310,1417 393,1486 506,1520 651,1520 796,1520 909,1486 992,1417 1075,1348 1116,1253 1116,1133 1116,1042 1089,968 1036,910 982,851 905,813 805,795 Z"/>
   <glyph unicode="5" horiz-adv-x="980" d="M 1030,1493 L 1030,1329 346,1329 346,901 C 381,925 421,943 468,955 514,967 566,973 623,973 784,973 912,928 1005,839 1098,750 1145,628 1145,473 1145,315 1098,192 1004,104 909,15 777,-29 606,-29 537,-29 467,-21 395,-4 323,13 249,38 174,72 L 174,362 287,362 C 293,267 323,195 378,145 432,95 508,70 606,70 711,70 792,105 849,174 906,243 934,343 934,473 934,602 906,702 850,771 793,840 712,874 606,874 546,874 493,863 448,842 402,821 361,788 326,743 L 240,743 240,1493 Z"/>
   <glyph unicode="4" horiz-adv-x="1142" d="M 715,506 L 715,1300 205,506 Z M 1155,0 L 475,0 475,106 715,106 715,399 63,399 63,508 717,1520 915,1520 915,506 1200,506 1200,399 915,399 915,106 1155,106 Z"/>
   <glyph unicode="3" horiz-adv-x="1003" d="M 199,1430 C 277,1459 352,1482 424,1497 495,1512 562,1520 625,1520 771,1520 885,1489 967,1426 1049,1363 1090,1275 1090,1163 1090,1073 1062,998 1005,938 948,877 868,836 764,815 887,798 982,753 1050,682 1117,610 1151,517 1151,403 1151,264 1104,157 1011,83 917,8 782,-29 606,-29 528,-29 452,-21 378,-4 303,13 229,38 156,72 L 156,362 268,362 C 275,266 307,193 365,144 423,95 505,70 610,70 712,70 793,100 852,159 911,218 940,298 940,401 940,518 910,607 849,668 788,728 699,758 582,758 L 487,758 487,860 537,860 C 654,860 741,884 800,933 858,981 887,1054 887,1151 887,1238 863,1305 815,1352 767,1398 698,1421 608,1421 518,1421 448,1400 399,1357 349,1314 320,1251 311,1167 L 199,1167 Z"/>
   <glyph unicode="2" horiz-adv-x="979" d="M 262,1137 L 150,1137 150,1403 C 221,1441 293,1470 366,1490 438,1510 509,1520 578,1520 733,1520 856,1482 946,1407 1036,1332 1081,1229 1081,1100 1081,954 979,779 775,576 759,561 747,549 739,541 L 362,164 985,164 985,348 1102,348 1102,0 139,0 139,109 592,561 C 692,661 763,753 806,837 849,920 870,1008 870,1100 870,1201 844,1279 792,1336 739,1393 667,1421 575,1421 480,1421 406,1397 354,1350 302,1303 271,1232 262,1137 Z"/>
   <glyph unicode="1" horiz-adv-x="770" d="M 291,0 L 291,106 551,106 551,1348 250,1153 250,1284 614,1520 752,1520 752,106 1012,106 1012,0 Z"/>
   <glyph unicode="0" horiz-adv-x="1049" d="M 651,70 C 753,70 829,126 880,238 931,350 956,519 956,745 956,972 931,1141 880,1253 829,1365 753,1421 651,1421 549,1421 473,1365 422,1253 371,1141 346,972 346,745 346,519 371,350 422,238 473,126 549,70 651,70 Z M 651,-29 C 489,-29 363,39 272,175 181,311 135,501 135,745 135,990 181,1180 272,1316 363,1452 489,1520 651,1520 814,1520 940,1452 1031,1316 1122,1180 1167,990 1167,745 1167,501 1122,311 1031,175 940,39 814,-29 651,-29 Z"/>
   <glyph unicode="-" horiz-adv-x="514" d="M 90,627 L 602,627 602,471 90,471 Z"/>
   <glyph unicode=")" horiz-adv-x="490" d="M 145,-319 L 145,-221 C 248,-150 322,-51 367,78 412,206 434,386 434,618 434,851 412,1031 367,1160 322,1288 248,1387 145,1458 L 145,1556 C 308,1483 430,1368 513,1211 596,1053 637,855 637,618 637,381 596,184 513,27 430,-131 308,-246 145,-319 Z"/>
   <glyph unicode="(" horiz-adv-x="513" d="M 653,-319 C 491,-246 369,-131 286,27 203,184 162,381 162,618 162,855 203,1053 286,1211 369,1368 491,1483 653,1556 L 653,1458 C 550,1387 477,1288 432,1160 387,1031 365,851 365,618 365,386 387,206 432,78 477,-51 550,-150 653,-221 Z"/>
   <glyph unicode=" " horiz-adv-x="652"/>
  </font>
 </defs>
 <defs>
  <font id="EmbeddedFont_4" horiz-adv-x="2048">
   <font-face font-family="StarSymbol embedded" units-per-em="2048" font-weight="normal" font-style="normal" ascent="1888" descent="652"/>
   <missing-glyph horiz-adv-x="2048" d="M 0,0 L 2047,0 2047,2047 0,2047 0,0 Z"/>
   <glyph unicode="●" horiz-adv-x="1189" d="M 813,0 C 633,0 490,54 383,161 276,268 223,412 223,592 223,772 276,916 383,1023 490,1130 633,1184 813,1184 992,1184 1136,1130 1245,1023 1353,916 1407,772 1407,592 1407,412 1353,268 1245,161 1136,54 992,0 813,0 Z"/>
  </font>
 </defs>
 <g visibility="visible" id="MasterSlide_1_Default">
  <desc>Master slide
  </desc>
  <rect fill="none" stroke="none" x="0" y="0" width="27940" height="12700"/>
 </g>
 <g visibility="visible" id="Slide_1_page1">
  <g>
   <path fill="none" stroke="rgb(0,0,0)" id="Drawing_1_0" stroke-width="102" stroke-linejoin="round" d="M 9168,5878 L 7517,5878 7517,4495 10819,4495 10819,5878 9168,5878 Z"/>
  </g>
  <g id="Drawing_2">
   <rect fill="none" stroke="none" x="7644" y="4516" width="3119" height="1244"/>
   <g fill="rgb(0,0,0)" stroke="none" font-family="Bitstream Vera Serif embedded" font-size="423" font-style="normal" font-weight="400">
    <text x="8205" y="5035">
     <tspan x="8205 8455 8692 8963 9136 9276 9678 9928">expt-meb</tspan></text>
    <text fill="rgb(0,0,0)" stroke="none" x="7894" y="5531">
     <tspan x="7894 8059 8398 8648 8783 8918 9054 9270 9541 9807 10078 10345">(Dell s5248)</tspan></text>
   </g>
  </g>
  <g>
   <path fill="none" stroke="rgb(0,0,0)" id="Drawing_3_0" stroke-width="102" stroke-linejoin="round" d="M 9165,4114 L 9155,3099"/>
   <path fill="rgb(0,0,0)" stroke="none" id="Drawing_3_1" d="M 9168,4495 L 9292,4113 9038,4115 9168,4495 Z"/>
   <path fill="rgb(0,0,0)" stroke="none" id="Drawing_3_2" d="M 9152,2718 L 9028,3100 9282,3098 9152,2718 Z"/>
  </g>
  <g id="Drawing_4">
   <rect fill="none" stroke="none" x="9151" y="3266" width="1796" height="722"/>
   <g fill="rgb(0,0,0)" stroke="none" font-family="Arial embedded" font-size="423" font-style="normal" font-weight="700">
    <text x="9401" y="3772">
     <tspan x="9401 9638 9871 10201">40Gb</tspan></text>
   </g>
  </g>
  <g>
   <path fill="none" stroke="rgb(0,0,0)" id="Drawing_5_0" stroke-width="102" stroke-linejoin="round" d="M 19201,7738 L 17550,7738 17550,6355 20852,6355 20852,7738 19201,7738 Z"/>
  </g>
  <g id="Drawing_6">
   <rect fill="none" stroke="none" x="17677" y="6376" width="3119" height="1244"/>
   <g fill="rgb(0,0,0)" stroke="none" font-family="Bitstream Vera Serif embedded" font-size="423" font-style="normal" font-weight="400">
    <text x="18173" y="6895">
     <tspan x="18173 18423 18660 18931 19104 19244 19401 19659 19858 20027">expt-fort1</tspan></text>
    <text fill="rgb(0,0,0)" stroke="none" x="17927" y="7391">
     <tspan x="17927 18092 18431 18681 18816 18951 19087 19303 19574 19840 20111 20378">(Dell s5248)</tspan></text>
   </g>
  </g>
  <g>
   <path fill="none" stroke="rgb(0,0,0)" id="Drawing_7_0" stroke-width="102" stroke-linejoin="round" d="M 24679,10402 L 25940,10402 C 26216,10402 26440,10178 26440,9902 L 26440,9759 C 26440,9483 26216,9259 25940,9259 L 23418,9259 C 23142,9259 22918,9483 22918,9759 L 22918,9902 C 22918,10178 23142,10402 23418,10402 L 24679,10402 Z"/>
  </g>
  <g id="Drawing_8">
   <rect fill="none" stroke="none" x="23584" y="9259" width="2383" height="1192"/>
   <g fill="rgb(0,0,0)" stroke="none" font-family="Arial embedded" font-size="423" font-style="normal" font-weight="400">
    <text x="23834" y="9765">
     <tspan x="23834 24071 24283 24516 24753 24892 25011 25244 25388">pc18-fort</tspan></text>
    <text fill="rgb(0,0,0)" stroke="none" x="24057" y="10235">
     <tspan x="24057 24197 24434 24667 24904 25141">(d840)</tspan></text>
   </g>
  </g>
  <g>
   <path fill="none" stroke="rgb(0,0,0)" id="Drawing_9_0" stroke-width="102" stroke-linejoin="round" d="M 3569,5751 L 4830,5751 C 5106,5751 5330,5527 5330,5251 L 5330,5029 C 5330,4753 5106,4529 4830,4529 L 2308,4529 C 2032,4529 1808,4753 1808,5029 L 1808,5251 C 1808,5527 2032,5751 2308,5751 L 3569,5751 Z"/>
  </g>
  <g id="Drawing_10">
   <rect fill="none" stroke="none" x="1774" y="4529" width="3585" height="1192"/>
   <g fill="rgb(0,0,0)" stroke="none" font-family="Arial embedded" font-size="423" font-style="normal" font-weight="400">
    <text x="2024" y="5035">
     <tspan x="2024 2261 2473 2706 2943 3082 3319 3527 3764 4001 4141 4492 4729 4962">pc01-pc04(meb)</tspan></text>
    <text fill="rgb(0,0,0)" stroke="none" x="2954" y="5505">
     <tspan x="2954 3094 3331 3564 3801 4038">(d740)</tspan></text>
   </g>
  </g>
  <g>
   <path fill="rgb(102,255,255)" stroke="none" d="M 3580,8144 L 1929,8144 1929,6687 5231,6687 5231,8144 3580,8144 Z"/>
   <path fill="none" stroke="rgb(128,128,128)" id="Drawing_11_0" stroke-linejoin="round" d="M 3580,8144 L 1929,8144 1929,6687 5231,6687 5231,8144 3580,8144 Z"/>
   <rect fill="none" stroke="none" x="1929" y="6688" width="3303" height="1458"/>
  </g>
  <g id="Drawing_12">
   <rect fill="none" stroke="none" x="1929" y="6861" width="3303" height="1244"/>
   <g fill="rgb(0,0,0)" stroke="none" font-family="Bitstream Vera Serif embedded" font-size="423" font-style="normal" font-weight="400">
    <text x="3007" y="7380">
     <tspan x="3007 3439 3748">MEB</tspan></text>
    <text fill="rgb(0,0,0)" stroke="none" x="2179" y="7876">
     <tspan x="2179 2488 2742 2958 3208 3343 3635 3805 4054 4228 4359 4617">Base Station</tspan></text>
   </g>
  </g>
  <g>
   <path fill="none" stroke="rgb(0,0,0)" id="Drawing_13_0" stroke-width="102" stroke-linejoin="round" d="M 19201,4944 L 17550,4944 17550,3561 20852,3561 20852,4944 19201,4944 Z"/>
  </g>
  <g id="Drawing_14">
   <rect fill="none" stroke="none" x="17677" y="3582" width="3119" height="1244"/>
   <g fill="rgb(0,0,0)" stroke="none" font-family="Bitstream Vera Serif embedded" font-size="423" font-style="normal" font-weight="400">
    <text x="18173" y="4101">
     <tspan x="18173 18423 18660 18931 19104 19244 19401 19659 19858 20027">expt-fort2</tspan></text>
    <text fill="rgb(0,0,0)" stroke="none" x="17927" y="4597">
     <tspan x="17927 18092 18431 18681 18816 18951 19087 19303 19574 19840 20111 20378">(Dell s5248)</tspan></text>
   </g>
  </g>
  <g>
   <path fill="none" stroke="rgb(0,0,0)" id="Drawing_15_0" stroke-width="102" stroke-linejoin="round" d="M 19201,10405 L 17550,10405 17550,9022 20852,9022 20852,10405 19201,10405 Z"/>
  </g>
  <g id="Drawing_16">
   <rect fill="none" stroke="none" x="17677" y="9043" width="3119" height="1244"/>
   <g fill="rgb(0,0,0)" stroke="none" font-family="Bitstream Vera Serif embedded" font-size="423" font-style="normal" font-weight="400">
    <text x="18173" y="9562">
     <tspan x="18173 18423 18660 18931 19104 19244 19401 19659 19858 20027">expt-fort3</tspan></text>
    <text fill="rgb(0,0,0)" stroke="none" x="17927" y="10058">
     <tspan x="17927 18092 18431 18681 18816 18951 19087 19303 19574 19840 20111 20378">(Dell s5248)</tspan></text>
   </g>
  </g>
  <g>
   <path fill="none" stroke="rgb(0,0,0)" id="Drawing_17_0" stroke-width="102" stroke-linejoin="round" d="M 3563,3592 L 4824,3592 C 5100,3592 5324,3368 5324,3092 L 5324,2949 C 5324,2673 5100,2449 4824,2449 L 2302,2449 C 2026,2449 1802,2673 1802,2949 L 1802,3092 C 1802,3368 2026,3592 2302,3592 L 3563,3592 Z"/>
  </g>
  <g id="Drawing_18">
   <rect fill="none" stroke="none" x="2403" y="2449" width="2383" height="1192"/>
   <g fill="rgb(0,0,0)" stroke="none" font-family="Arial embedded" font-size="423" font-style="normal" font-weight="400">
    <text x="2653" y="2955">
     <tspan x="2653 2890 3102 3335 3572 3711 4063 4300">pc19-meb</tspan></text>
    <text fill="rgb(0,0,0)" stroke="none" x="2982" y="3425">
     <tspan x="2982 3122 3359 3592 3829 4066">(d840)</tspan></text>
   </g>
  </g>
  <g>
   <path fill="none" stroke="rgb(0,0,0)" id="Drawing_19_0" stroke-width="102" stroke-linejoin="round" d="M 24645,7577 L 25906,7577 C 26182,7577 26406,7353 26406,7077 L 26406,6855 C 26406,6579 26182,6355 25906,6355 L 23384,6355 C 23108,6355 22884,6579 22884,6855 L 22884,7077 C 22884,7353 23108,7577 23384,7577 L 24645,7577 Z"/>
  </g>
  <g id="Drawing_20">
   <rect fill="none" stroke="none" x="22977" y="6386" width="3585" height="1192"/>
   <g fill="rgb(0,0,0)" stroke="none" font-family="Arial embedded" font-size="423" font-style="normal" font-weight="400">
    <text x="23227" y="6892">
     <tspan x="23227 23464 23676 23909 24146 24285 24522 24730 24967 25204 25344 25462 25695 25839 25953">pc05-pc16(fort)</tspan></text>
    <text fill="rgb(0,0,0)" stroke="none" x="24051" y="7362">
     <tspan x="24051 24191 24428 24661 24898 25135">(d740)</tspan></text>
   </g>
  </g>
  <g>
   <path fill="none" stroke="rgb(0,0,0)" id="Drawing_21_0" stroke-width="102" stroke-linejoin="round" d="M 24639,4656 L 25900,4656 C 26176,4656 26400,4432 26400,4156 L 26400,4013 C 26400,3737 26176,3513 25900,3513 L 23378,3513 C 23102,3513 22878,3737 22878,4013 L 22878,4156 C 22878,4432 23102,4656 23378,4656 L 24639,4656 Z"/>
  </g>
  <g id="Drawing_22">
   <rect fill="none" stroke="none" x="23420" y="3465" width="2383" height="1192"/>
   <g fill="rgb(0,0,0)" stroke="none" font-family="Arial embedded" font-size="423" font-style="normal" font-weight="400">
    <text x="23670" y="3971">
     <tspan x="23670 23907 24119 24352 24589 24728 24847 25080 25224">pc17-fort</tspan></text>
    <text fill="rgb(0,0,0)" stroke="none" x="23893" y="4441">
     <tspan x="23893 24033 24270 24503 24740 24977">(d840)</tspan></text>
   </g>
  </g>
  <g id="DrawingGroup_1">
   <g>
    <path fill="none" stroke="rgb(0,0,0)" id="Drawing_23_0" stroke-width="102" stroke-linejoin="round" d="M 13613,3951 L 11962,3951 11962,2568 15264,2568 15264,3951 13613,3951 Z"/>
   </g>
   <g id="Drawing_24">
    <rect fill="none" stroke="none" x="12089" y="2589" width="3119" height="1244"/>
    <g fill="rgb(0,0,0)" stroke="none" font-family="Bitstream Vera Serif embedded" font-size="423" font-style="normal" font-weight="400">
     <text x="12587" y="3108">
      <tspan x="12587 12837 13074 13345 13518 13658 13929 14200 14437">expt-ddc1</tspan></text>
     <text fill="rgb(0,0,0)" stroke="none" x="12339" y="3604">
      <tspan x="12339 12504 12843 13093 13228 13363 13499 13715 13986 14252 14523 14790">(Dell s5248)</tspan></text>
    </g>
   </g>
  </g>
  <g>
   <path fill="rgb(102,255,255)" stroke="none" d="M 18439,2702 L 16788,2702 16788,1245 20090,1245 20090,2702 18439,2702 Z"/>
   <path fill="none" stroke="rgb(128,128,128)" id="Drawing_25_0" stroke-linejoin="round" d="M 18439,2702 L 16788,2702 16788,1245 20090,1245 20090,2702 18439,2702 Z"/>
   <rect fill="none" stroke="none" x="16788" y="1246" width="3303" height="1458"/>
  </g>
  <g id="Drawing_26">
   <rect fill="none" stroke="none" x="17124" y="1412" width="2795" height="1244"/>
   <g fill="rgb(0,0,0)" stroke="none" font-family="Bitstream Vera Serif embedded" font-size="423" font-style="normal" font-weight="400">
    <text x="17446" y="1931">
     <tspan x="17446 17730 17984 18119 18458 18796">To DDC</tspan></text>
    <text fill="rgb(0,0,0)" stroke="none" x="17374" y="2427">
     <tspan x="17374 17539 17755 17992 18128 18398 18801 19025">(scidmz)</tspan></text>
   </g>
  </g>
  <g>
   <path fill="rgb(102,255,255)" stroke="none" d="M 18439,2702 L 16788,2702 16788,1245 20090,1245 20090,2702 18439,2702 Z"/>
   <path fill="none" stroke="rgb(128,128,128)" id="Drawing_27_0" stroke-linejoin="round" d="M 18439,2702 L 16788,2702 16788,1245 20090,1245 20090,2702 18439,2702 Z"/>
   <rect fill="none" stroke="none" x="16788" y="1246" width="3303" height="1458"/>
  </g>
  <g id="Drawing_28">
   <rect fill="none" stroke="none" x="16915" y="1412" width="3176" height="1419"/>
   <g fill="rgb(0,0,0)" stroke="none" font-family="Bitstream Vera Serif embedded" font-size="423" font-style="normal" font-weight="400">
    <text x="17165" y="1931">
     <tspan x="17165 17449 17703 17838 18160 18295 18549 18820 19091 19227 19481">To Cloudlab</tspan></text>
    <text fill="rgb(0,0,0)" stroke="none" x="17551" y="2427">
     <tspan x="17551 17716 17932 18169 18305 18575 18978 19202">(scidmz)</tspan></text>
   </g>
  </g>
  <g>
   <path fill="rgb(102,255,255)" stroke="none" d="M 9168,2702 L 7517,2702 7517,1245 10819,1245 10819,2702 9168,2702 Z"/>
   <path fill="none" stroke="rgb(128,128,128)" id="Drawing_29_0" stroke-linejoin="round" d="M 9168,2702 L 7517,2702 7517,1245 10819,1245 10819,2702 9168,2702 Z"/>
   <rect fill="none" stroke="none" x="7517" y="1246" width="3303" height="1458"/>
  </g>
  <g id="Drawing_30">
   <rect fill="none" stroke="none" x="7771" y="1433" width="3430" height="1244"/>
   <g fill="rgb(0,0,0)" stroke="none" font-family="Bitstream Vera Serif embedded" font-size="423" font-style="normal" font-weight="400">
    <text x="8021" y="1952">
     <tspan x="8021 8305 8559 8694 9003 9401 9676 9812 10061">To Emulab</tspan></text>
    <text fill="rgb(0,0,0)" stroke="none" x="8326" y="2448">
     <tspan x="8326 8491 8783 9054 9325 9592 9863">(Z9500)</tspan></text>
   </g>
  </g>
  <g id="Drawing_31">
   <rect fill="none" stroke="none" x="11581" y="4776" width="2268" height="722"/>
   <g fill="rgb(0,0,0)" stroke="none" font-family="Arial embedded" font-size="423" font-style="normal" font-weight="700">
    <text x="11831" y="5282">
     <tspan x="11831 12068 12301 12538 12771 13008 13338">2x100Gb</tspan></text>
   </g>
  </g>
  <g id="Drawing_32">
   <rect fill="none" stroke="none" x="13994" y="1347" width="3176" height="722"/>
   <g fill="rgb(0,0,0)" stroke="none" font-family="Arial embedded" font-size="423" font-style="normal" font-weight="700">
    <text x="14244" y="1853">
     <tspan x="14244 14481 14714 14951 15184 15421 15751">2x100Gb</tspan></text>
   </g>
  </g>
  <g>
   <path fill="none" stroke="rgb(0,0,0)" id="Drawing_33_0" stroke-width="102" stroke-linejoin="round" d="M 21233,3846 L 22503,3846"/>
   <path fill="rgb(0,0,0)" stroke="none" id="Drawing_33_1" d="M 20852,3846 L 21233,3973 21233,3719 20852,3846 Z"/>
   <path fill="rgb(0,0,0)" stroke="none" id="Drawing_33_2" d="M 22884,3846 L 22503,3719 22503,3973 22884,3846 Z"/>
  </g>
  <g id="Drawing_34">
   <rect fill="none" stroke="none" x="10675" y="6386" width="1796" height="722"/>
   <g fill="rgb(0,0,0)" stroke="none" font-family="Arial embedded" font-size="423" font-style="normal" font-weight="700">
    <text x="10925" y="6892">
     <tspan x="10925 11162 11395 11632 11958">100Gb</tspan></text>
   </g>
  </g>
  <g>
   <path fill="none" stroke="rgb(0,0,0)" id="Drawing_35_0" stroke-width="102" stroke-linejoin="round" d="M 9168,6259 L 9168,7046 17169,7046"/>
   <path fill="rgb(0,0,0)" stroke="none" id="Drawing_35_1" d="M 9168,5878 L 9041,6259 9295,6259 9168,5878 Z"/>
   <path fill="rgb(0,0,0)" stroke="none" id="Drawing_35_2" d="M 17550,7046 L 17169,6919 17169,7173 17550,7046 Z"/>
  </g>
  <g id="Drawing_36">
   <rect fill="none" stroke="none" x="20981" y="10196" width="2031" height="722"/>
   <g fill="rgb(0,0,0)" stroke="none" font-family="Arial embedded" font-size="423" font-style="normal" font-weight="700">
    <text x="21231" y="10702">
     <tspan x="21231 21468 21701 21938 22171 22501">2x40Gb</tspan></text>
   </g>
  </g>
  <g id="Drawing_37">
   <rect fill="none" stroke="none" x="20981" y="2999" width="2031" height="722"/>
   <g fill="rgb(0,0,0)" stroke="none" font-family="Arial embedded" font-size="423" font-style="normal" font-weight="700">
    <text x="21231" y="3505">
     <tspan x="21231 21468 21701 21938 22171 22501">2x40Gb</tspan></text>
   </g>
  </g>
  <g>
   <path fill="none" stroke="rgb(0,0,0)" id="Drawing_38_0" stroke-width="102" stroke-linejoin="round" d="M 21233,10196 L 22630,10196"/>
   <path fill="rgb(0,0,0)" stroke="none" id="Drawing_38_1" d="M 20852,10196 L 21233,10323 21233,10069 20852,10196 Z"/>
   <path fill="rgb(0,0,0)" stroke="none" id="Drawing_38_2" d="M 23011,10196 L 22630,10069 22630,10323 23011,10196 Z"/>
  </g>
  <g>
   <path fill="none" stroke="rgb(0,0,0)" id="Drawing_39_0" stroke-width="76" stroke-linejoin="round" d="M 21089,5020 L 22901,6228"/>
   <path fill="rgb(0,0,0)" stroke="none" id="Drawing_39_1" d="M 20852,4862 L 21036,5099 21142,4941 20852,4862 Z"/>
   <path fill="rgb(0,0,0)" stroke="none" id="Drawing_39_2" d="M 23138,6386 L 22954,6149 22848,6307 23138,6386 Z"/>
  </g>
  <g>
   <path fill="none" stroke="rgb(0,0,0)" id="Drawing_40_0" stroke-width="76" stroke-linejoin="round" d="M 21089,8895 L 22901,7687"/>
   <path fill="rgb(0,0,0)" stroke="none" id="Drawing_40_1" d="M 20852,9053 L 21142,8974 21036,8816 20852,9053 Z"/>
   <path fill="rgb(0,0,0)" stroke="none" id="Drawing_40_2" d="M 23138,7529 L 22848,7608 22954,7766 23138,7529 Z"/>
  </g>
  <g>
   <path fill="none" stroke="rgb(0,0,0)" id="Drawing_41_0" stroke-width="76" stroke-linejoin="round" d="M 21137,6894 L 22599,6894"/>
   <path fill="rgb(0,0,0)" stroke="none" id="Drawing_41_1" d="M 20852,6894 L 21137,6989 21137,6799 20852,6894 Z"/>
   <path fill="rgb(0,0,0)" stroke="none" id="Drawing_41_2" d="M 22884,6894 L 22599,6799 22599,6989 22884,6894 Z"/>
  </g>
  <g id="Drawing_42">
   <rect fill="none" stroke="none" x="20979" y="7148" width="1796" height="646"/>
   <g fill="rgb(0,0,0)" stroke="none" font-family="Arial embedded" font-size="353" font-style="normal" font-weight="700">
    <text x="21229" y="7591">
     <tspan x="21229 21424 21623 21817 22016 22287">2x10Gb</tspan></text>
   </g>
  </g>
  <g id="Drawing_43">
   <rect fill="none" stroke="none" x="20962" y="5868" width="1796" height="646"/>
   <g fill="rgb(0,0,0)" stroke="none" font-family="Arial embedded" font-size="353" font-style="normal" font-weight="700">
    <text x="21212" y="6311">
     <tspan x="21212 21407 21606 21800 21999 22270">2x10Gb</tspan></text>
   </g>
  </g>
  <g>
   <path fill="none" stroke="rgb(0,0,0)" id="Drawing_44_0" stroke-width="102" stroke-linejoin="round" d="M 7176,4311 L 5572,3508"/>
   <path fill="rgb(0,0,0)" stroke="none" id="Drawing_44_1" d="M 7517,4481 L 7233,4197 7119,4424 7517,4481 Z"/>
   <path fill="rgb(0,0,0)" stroke="none" id="Drawing_44_2" d="M 5231,3338 L 5515,3622 5629,3395 5231,3338 Z"/>
  </g>
  <g id="Drawing_45">
   <rect fill="none" stroke="none" x="5868" y="3125" width="2031" height="849"/>
   <g fill="rgb(0,0,0)" stroke="none" font-family="Arial embedded" font-size="423" font-style="normal" font-weight="700">
    <text x="6118" y="3631">
     <tspan x="6118 6355 6588 6825 7058 7388">2x40Gb</tspan></text>
   </g>
  </g>
  <g>
   <path fill="none" stroke="rgb(0,0,0)" id="Drawing_46_0" stroke-width="76" stroke-linejoin="round" d="M 5643,5116 L 7232,5116"/>
   <path fill="rgb(0,0,0)" stroke="none" id="Drawing_46_1" d="M 5358,5116 L 5643,5211 5643,5021 5358,5116 Z"/>
   <path fill="rgb(0,0,0)" stroke="none" id="Drawing_46_2" d="M 7517,5116 L 7232,5021 7232,5211 7517,5116 Z"/>
  </g>
  <g id="Drawing_47">
   <rect fill="none" stroke="none" x="5612" y="4598" width="1796" height="646"/>
   <g fill="rgb(0,0,0)" stroke="none" font-family="Arial embedded" font-size="353" font-style="normal" font-weight="700">
    <text x="5862" y="5041">
     <tspan x="5862 6057 6256 6450 6649 6920">2x10Gb</tspan></text>
   </g>
  </g>
  <g>
   <path fill="none" stroke="rgb(0,0,0)" id="Drawing_48_0" stroke-width="102" stroke-linejoin="round" d="M 7162,6016 L 5586,6629"/>
   <path fill="rgb(0,0,0)" stroke="none" id="Drawing_48_1" d="M 7517,5878 L 7116,5898 7208,6134 7517,5878 Z"/>
   <path fill="rgb(0,0,0)" stroke="none" id="Drawing_48_2" d="M 5231,6767 L 5632,6747 5540,6511 5231,6767 Z"/>
  </g>
  <g id="Drawing_49">
   <rect fill="none" stroke="none" x="5739" y="6427" width="2268" height="849"/>
   <g fill="rgb(0,0,0)" stroke="none" font-family="Arial embedded" font-size="423" font-style="normal" font-weight="700">
    <text x="5989" y="6933">
     <tspan x="5989 6226 6459 6696 6929 7166 7496">11x10Gb</tspan></text>
   </g>
  </g>
  <g>
   <path fill="none" stroke="rgb(0,0,0)" id="Drawing_50_0" stroke-width="102" stroke-linejoin="round" d="M 18439,6005 L 18439,5370"/>
   <path fill="rgb(0,0,0)" stroke="none" id="Drawing_50_1" d="M 18439,6386 L 18566,6005 18312,6005 18439,6386 Z"/>
   <path fill="rgb(0,0,0)" stroke="none" id="Drawing_50_2" d="M 18439,4989 L 18312,5370 18566,5370 18439,4989 Z"/>
  </g>
  <g id="Drawing_51">
   <rect fill="none" stroke="none" x="18331" y="5243" width="2268" height="722"/>
   <g fill="rgb(0,0,0)" stroke="none" font-family="Arial embedded" font-size="423" font-style="normal" font-weight="700">
    <text x="18581" y="5749">
     <tspan x="18581 18818 19051 19288 19521 19758 20088">2x100Gb</tspan></text>
   </g>
  </g>
  <g>
   <path fill="none" stroke="rgb(0,0,0)" id="Drawing_52_0" stroke-width="102" stroke-linejoin="round" d="M 18439,8672 L 18439,8164"/>
   <path fill="rgb(0,0,0)" stroke="none" id="Drawing_52_1" d="M 18439,9053 L 18566,8672 18312,8672 18439,9053 Z"/>
   <path fill="rgb(0,0,0)" stroke="none" id="Drawing_52_2" d="M 18439,7783 L 18312,8164 18566,8164 18439,7783 Z"/>
  </g>
  <g id="Drawing_53">
   <rect fill="none" stroke="none" x="18331" y="8078" width="2268" height="722"/>
   <g fill="rgb(0,0,0)" stroke="none" font-family="Arial embedded" font-size="423" font-style="normal" font-weight="700">
    <text x="18581" y="8584">
     <tspan x="18581 18818 19051 19288 19521 19758 20088">2x100Gb</tspan></text>
   </g>
  </g>
  <g>
   <path fill="none" stroke="rgb(0,0,0)" id="Drawing_54_0" stroke-width="102" stroke-linejoin="round" d="M 17169,4252 L 16280,4252 16280,8805 13810,8805"/>
   <path fill="rgb(0,0,0)" stroke="none" id="Drawing_54_1" d="M 17550,4252 L 17169,4125 17169,4379 17550,4252 Z"/>
   <path fill="rgb(0,0,0)" stroke="none" id="Drawing_54_2" d="M 13429,8805 L 13810,8932 13810,8678 13429,8805 Z"/>
  </g>
  <g>
   <path fill="none" stroke="rgb(0,0,0)" id="Drawing_55_0" stroke-width="102" stroke-linejoin="round" d="M 17169,7548 L 16661,7548 16661,9520 13851,9520"/>
   <path fill="rgb(0,0,0)" stroke="none" id="Drawing_55_1" d="M 17550,7548 L 17169,7421 17169,7675 17550,7548 Z"/>
   <path fill="rgb(0,0,0)" stroke="none" id="Drawing_55_2" d="M 13470,9520 L 13851,9647 13851,9393 13470,9520 Z"/>
  </g>
  <g>
   <path fill="none" stroke="rgb(0,0,0)" id="Drawing_56_0" stroke-width="102" stroke-linejoin="round" d="M 17169,10196 L 13867,10196"/>
   <path fill="rgb(0,0,0)" stroke="none" id="Drawing_56_1" d="M 17550,10196 L 17169,10069 17169,10323 17550,10196 Z"/>
   <path fill="rgb(0,0,0)" stroke="none" id="Drawing_56_2" d="M 13486,10196 L 13867,10323 13867,10069 13486,10196 Z"/>
  </g>
  <g id="Drawing_57">
   <rect fill="none" stroke="none" x="13786" y="9475" width="2031" height="849"/>
   <g fill="rgb(0,0,0)" stroke="none" font-family="Arial embedded" font-size="423" font-style="normal" font-weight="700">
    <text x="14036" y="9981">
     <tspan x="14036 14273 14506 14743 14976 15306">7x10Gb</tspan></text>
   </g>
  </g>
  <g id="Drawing_58">
   <rect fill="none" stroke="none" x="13742" y="8799" width="2031" height="849"/>
   <g fill="rgb(0,0,0)" stroke="none" font-family="Arial embedded" font-size="423" font-style="normal" font-weight="700">
    <text x="13992" y="9305">
     <tspan x="13992 14229 14462 14699 14932 15262">7x10Gb</tspan></text>
   </g>
  </g>
  <g>
   <path fill="rgb(102,255,255)" stroke="none" d="M 11835,10255 L 10184,10255 10184,8798 13486,8798 13486,10255 11835,10255 Z"/>
   <path fill="none" stroke="rgb(128,128,128)" id="Drawing_59_0" stroke-linejoin="round" d="M 11835,10255 L 10184,10255 10184,8798 13486,8798 13486,10255 11835,10255 Z"/>
   <rect fill="none" stroke="none" x="10184" y="8799" width="3303" height="1458"/>
  </g>
  <g id="Drawing_60">
   <rect fill="none" stroke="none" x="10184" y="8965" width="3430" height="1740"/>
   <g fill="rgb(0,0,0)" stroke="none" font-family="Bitstream Vera Serif embedded" font-size="423" font-style="normal" font-weight="400">
    <text x="11056" y="9484">
     <tspan x="11056 11374 11628 11886 12042 12212 12466">Rooftop</tspan></text>
    <text fill="rgb(0,0,0)" stroke="none" x="10434" y="9980">
     <tspan x="10434 10743 10997 11213 11463 11598 11890 12060 12309 12483 12614 12872 13143">Base Stations</tspan></text>
   </g>
  </g>
  <g id="DrawingGroup_2">
   <g id="Drawing_61">
    <rect fill="none" stroke="none" x="3072" y="8672" width="7240" height="2287"/>
    <g fill="rgb(0,0,0)" stroke="none" font-family="Arial embedded" font-size="282" font-style="normal" font-weight="400">
     <text x="3322" y="9051">
      <tspan x="3322 3508 3665 3809 3965 4042 4198 4355 4499 4656 4732 4876 4952 5108 5189 5248 5409 5566 5642 5799 5955 6095">Each base station has:</tspan></text>
    </g>
    <g fill="rgb(0,0,0)" stroke="none" font-family="StarSymbol embedded" font-size="126" font-style="normal" font-weight="400">
     <text x="3322" y="9302">●</text>
    </g>
    <g fill="rgb(0,0,0)" stroke="none" font-family="Arial embedded" font-size="282" font-style="normal" font-weight="400">
     <text x="3678" y="9364">
      <tspan x="3678 3898 4055 4211 4288 4444 4605 4821 4978 5058 5122 5181 5342 5481 5558 5638 5795 5871 5951 6108 6265 6345 6548 6734 6891 7048 7128 7221 7378 7535 7598">One 10Gb link to the CELL radio</tspan></text>
    </g>
    <g fill="rgb(0,0,0)" stroke="none" font-family="StarSymbol embedded" font-size="126" font-style="normal" font-weight="400">
     <text x="3322" y="9615">●</text>
    </g>
    <g fill="rgb(0,0,0)" stroke="none" font-family="Arial embedded" font-size="282" font-style="normal" font-weight="400">
     <text x="3678" y="9677">
      <tspan x="3678 3852 4055 4211 4288 4444 4601 4821 4978 5058 5122 5181 5337 5481 5621 5702 5778 5934 6015 6091 6248 6404 6485 6688 6874 7077 7268 7344 7441 7598 7755 7814">Two 10Gb links to the CBRS radio</tspan></text>
    </g>
    <g fill="rgb(0,0,0)" stroke="none" font-family="StarSymbol embedded" font-size="126" font-style="normal" font-weight="400">
     <text x="3322" y="9928">●</text>
    </g>
    <g fill="rgb(0,0,0)" stroke="none" font-family="Arial embedded" font-size="282" font-style="normal" font-weight="400">
     <text x="3678" y="9990">
      <tspan x="3678 3852 4055 4211 4288 4444 4601 4821 4978 5058 5122 5181 5337 5481 5621 5702 5778 5934 6015 6171 6328 6468 6624 6705 6861 6938 7018 7094 7298 7454 7535 7738 7894 8051 8208 8347 8428 8521 8601 8758 8834 8991 9084 9241">Two 10Gb links to each of two N310s (future)</tspan></text>
    </g>
   </g>
   <g>
    <path fill="none" stroke="rgb(128,128,128)" id="Drawing_62_0" stroke-linejoin="round" d="M 6314,10450 L 3222,10450 3222,8672 9405,8672 9405,10450 6314,10450 Z"/>
    <rect fill="none" stroke="none" x="3223" y="8672" width="6184" height="1779"/>
   </g>
  </g>
  <g>
   <path fill="none" stroke="rgb(0,0,0)" id="Drawing_63_0" stroke-width="102" stroke-linejoin="round" d="M 13613,4354 L 13613,6513"/>
   <path fill="rgb(0,0,0)" stroke="none" id="Drawing_63_1" d="M 13613,3973 L 13486,4354 13740,4354 13613,3973 Z"/>
  </g>
  <g>
   <path fill="none" stroke="rgb(0,0,0)" id="Drawing_64_0" stroke-width="102" stroke-linejoin="round" d="M 13573,6461 L 17129,6461"/>
   <path fill="rgb(0,0,0)" stroke="none" id="Drawing_64_1" d="M 17510,6461 L 17129,6334 17129,6588 17510,6461 Z"/>
  </g>
  <g>
   <path fill="none" stroke="rgb(0,0,0)" id="Drawing_65_0" stroke-width="102" stroke-linejoin="round" d="M 13613,2187 L 13613,1941 16287,1974 16407,1974"/>
   <path fill="rgb(0,0,0)" stroke="none" id="Drawing_65_1" d="M 13613,2568 L 13740,2187 13486,2187 13613,2568 Z"/>
   <path fill="rgb(0,0,0)" stroke="none" id="Drawing_65_2" d="M 16788,1974 L 16407,1847 16407,2101 16788,1974 Z"/>
  </g>
 </g>
</svg>